{
	"tags": {
		"allowUnknownTags": true
	},
	"source": {
		"include": ["."],
		"includePattern": ".+wa(.+)\\.js$",
		"excludePattern": "(^|\\/|\\\\)_"
	},
	"opts": {
		// "template": "/usr/lib/node_modules/ink-docstrap/template",
		"template": "/usr/lib/node_modules/docdash",
		"encoding": "utf8",
		"destination": "./doc/",
		"recurse": false
	},
	"plugins": ["plugins/markdown"],
	"templates": {
		"logoFile": "",
		"cleverLinks": false,
		"monospaceLinks": false,
		"dateFormat": "ddd MMM Do YYYY",
		"outputSourceFiles": true,
		"outputSourcePath": true,
		"systemName": "waLibs / waApplication",
		"footer": "",
		"copyright": "(c) 2007-2016 {@link http://www.webappls.com WebAppls} Bologna, Italy. Licensed under GPLv3",
		"navType": "vertical",
		"theme": "cosmo",
		"linenums": true,
		"collapseSymbols": false,
		"inverseNav": true,
		"protocol": "html://",
		"methodHeadingReturns": false
	},
	"markdown": {
		"parser": "gfm",
		"hardwrap": true
	}
}
